[gd_scene load_steps=2 format=2]

[ext_resource path="res://game/spawners/wave_controller.gd" type="Script" id=1]

[node name="WaveController" type="Node2D"]
script = ExtResource( 1 )

[node name="Timer" type="Timer" parent="."]
[connection signal="timeout" from="Timer" to="." method="_on_Timer_timeout"]
