[gd_scene load_steps=2 format=2]

[ext_resource path="res://game/systems/moveto_system.gd" type="Script" id=1]

[node name="MoveToSystem" type="Node2D"]
script = ExtResource( 1 )
COMPONENTS = "moveto"
