[gd_scene load_steps=2 format=2]

[ext_resource path="res://game/systems/smoothing_system.gd" type="Script" id=1]

[node name="SmoothingSystem" type="Node2D"]
script = ExtResource( 1 )
COMPONENTS = "smooth"
